{
	"name": "./maps/taiga.jpg",
	"data": [
		{ 
			"type": "armor-helmet-light",
			"coordinates": [1787.3438, 1567.9688]
		},
		{ 
			"type": "armor-legs-light",
			"coordinates": [1770.4688, 1606.4063]
		},
		{ 
			"type": "armor-chest-light",
			"coordinates": [1780.3438, 1586.0938]
		},
		{ 
			"type": "bear-trap",
			"coordinates": [1769.7656, 1402.2656]
		},
		{ 
			"type": "bastard-sword",
			"coordinates": [1685.8594, 1706.4844]
		},
		{ 
			"type": "warhammer",
			"coordinates": [1582.0313, 815.1563]
		},
		{ 
			"type": "recurvebow",
			"coordinates": [1724.2969, 1283.2031]
		},
		{ 
			"type": "arming-sword",
			"coordinates": [1660.0067, 1704.0268]
		},
		{ 
			"type": "dagger",
			"coordinates": [1457.5781, 1710.7031]
		},
		{ 
			"type": "pavise-shield",
			"coordinates": [574.4531, 1079.2969]
		},
		{ 
			"type": "targe",
			"coordinates": [1938.2813, 1579.2188]
		},
		{ 
			"type": "armor-helmet-medium",
			"coordinates": [1417.2656, 1165.0781]
		},
		{ 
			"type": "buckler",
			"coordinates": [1980.7031, 1373.2031]
		},
		{ 
			"type": "rapier",
			"coordinates": [902.4609, 949.3359]
		},
		{ 
			"type": "short-sword",
			"coordinates": [1437.4219, 1577.5781]
		},
		{ 
			"type": "rusty-fork", 
			"coordinates": [1915.7344, 1389.6854]
		}, 
		{ 
			"type": "axe",
			"coordinates": [1892.0490, 1602.1046]
		},
		{ 
			"type": "greatsword",
			"coordinates": [2218.8281, 555.7031]
		},
		{ 
			"type": "blacksmith-hammer",
			"coordinates": [1879.9219, 1342.2656]
		},
		{ 
			"type": "billhook",
			"coordinates": [2347.2656, 583.8281]
		},
		{ 
			"type": "longsword",
			"coordinates": [2054.8828, 860.0391]
		},
		{ 
			"type": "throwing-axe",
			"coordinates": [2888.2031, 921.3281]
		},
		{ 
			"type": "fire-bomb",
			"coordinates": [1930.7813, 562.0313]
		},
		{ 
			"type": "battle-axe",
			"coordinates": [2077.7344, 1586.0156]
		},
		{ 
			"type": "armor-legs-heavy",
			"coordinates": [2153.0859, 467.9297]
		},
		{ 
			"type": "heather-shield",
			"coordinates": [1056.6797, 811.9922]
		},
		{ 
			"type": "bardiche",
			"coordinates": [2395.0781, 855.2344]
		},
		{ 
			"type": "zweihander",
			"coordinates": [2899.2188, 825.4688]
		},
		{ 
			"type": "executioner-sword",
			"coordinates": [694.4531, 770.8594]
		},
		{ 
			"type": "armor-chest-medium",
			"coordinates": [2296.5234, 1462.8516]
		},
		{ 
			"type": "hoe",
			"coordinates": [1405.3125, 1115.6250]
		},
		{ 
			"type": "longbow",
			"coordinates": [2512.2656, 1288.8281]
		},
		{ 
			"type": "crossbow",
			"coordinates": [910.0781, 855.7031]
		},
		{ 
			"type": "war-axe",
			"coordinates": [670.0781, 922.7344]
		},
		{ 
			"type": "armor-helmet-heavy",
			"coordinates": [675.7031, 907.2656]
		},
		{ 
			"type": "scythe",
			"coordinates": [1707.0703, 1413.3984]
		},
		{ 
			"type": "hammer-toolbox",
			"coordinates": [1654.9219, 1554.1406]
		},
		{ 
			"type": "estoc",
			"coordinates": [564.1406, 903.5156]
		},
		{ 
			"type": "maul",
			"coordinates": [1951.4063, 432.6563]
		},
		{ 
			"type": "mace",
			"coordinates": [1041.7969, 1046.4844]
		},
		{ 
			"type": "spear",
			"coordinates": [573.2813, 1140.4688]
		},
		{ 
			"type": "falchion",
			"coordinates": [1660.4297, 716.1328]
		},
		{ 
			"type": "halberd",
			"coordinates": [2715.4688, 907.0313]
		},
		{ 
			"type": "kiteshield",
			"coordinates": [2734.2188, 753.2813]
		},
		{ 
			"type": "poleaxe",
			"coordinates": [1324.1016, 876.4453]
		},
		{ 
			"type": "armor-chest-heavy",
			"coordinates": [2455.0781, 886.1719]
		},
		{ 
			"type": "eveningstar",
			"coordinates": [2873.9063, 754.2188]
		},
		{ 
			"type": "messer",
			"coordinates": [2423.0859, 1292.6953]
		},
		{ 
			"type": "medic-kit",
			"coordinates": [2370.7031, 1729.2188]
        },
        {
            "type": "throwing-knife",
            "coordinates": [1706.7188, 1823.9063]
        }
	]
}